{"photos":{"page":1,"pages":665,"perpage":100,"total":"66477","photo":[{"id":"22268643413","owner":"21504394@N05","secret":"50162cb43a","server":"5703","farm":6,"title":"frog face","ispublic":1,"isfriend":0,"isfamily":0},{"id":"22265017473","owner":"95976399@N00","secret":"a53f709ddd","server":"695","farm":1,"title":"Untitled","ispublic":1,"isfriend":0,"isfamily":0,"originalsecret":"6e94df0533","originalformat":"png"},{"id":"22263285134","owner":"95976399@N00","secret":"1a4ae8d21a","server":"715","farm":1,"title":"Untitled","ispublic":1,"isfriend":0,"isfamily":0,"originalsecret":"b237efe5b0","originalformat":"png"},{"id":"22264358493","owner":"95976399@N00","secret":"5ba1b82dc5","server":"580","farm":1,"title":"Huntress Catteneo makes and tries out the mirroring effect at BURN2","ispublic":1,"isfriend":0,"isfamily":0,"originalsecret":"b69dff5fb0","originalformat":"png"},{"id":"22464254817","owner":"92906777@N05","secret":"01a5ec0dec","server":"5781","farm":6,"title":"\u4e00\u4ef6\u897f\u5143\u524d1600\u5e74\u81f3\u897f\u5143\u524d221\u5e74\u5546\u5468\u6642\u671f\u7687\u540e\u7528\u9752\u9285\u516b\u9cf3\u7d0b\u7235 A Bronze carved Eight-Phoenixes Ritual Wine Vessel JUE for Queen of Shang dynasty to Zhou dynasty China from 1600 B.C. to 221 B.C.","ispublic":1,"isfriend":0,"isfamily":0,"originalsecret":"69c4ac99e3","originalformat":"jpg"},{"id":"22464254767","owner":"92906777@N05","secret":"385fdb7e6c","server":"761","farm":1,"title":"\u4e00\u4ef6\u897f\u5143\u524d1600\u5e74\u81f3\u897f\u5143\u524d221\u5e74\u5546\u5468\u6642\u671f\u7687\u540e\u7528\u9752\u9285\u516b\u9cf3\u7d0b\u7235 A Bronze carved Eight-Phoenixes Ritual Wine Vessel JUE for Queen of Shang dynasty to Zhou dynasty China from 1600 B.C. to 221 B.C.","ispublic":1,"isfriend":0,"isfamily":0,"originalsecret":"54b56a29ff","originalformat":"jpg"},{"id":"22258933444","owner":"127717960@N07","secret":"07db5b7f06","server":"647","farm":1,"title":"A Night Heron to Remember -           Black-Crowned Night Heron","ispublic":1,"isfriend":0,"isfamily":0,"originalsecret":"98f710829e","originalformat":"jpg"},{"id":"22872826435","owner":"100121190@N06","secret":"aedd37c08d","server":"5786","farm":6,"title":"'Eye of Newt'  pair of smooth newts, Lissotriton vulgaris, amongst leaf litter","ispublic":1,"isfriend":0,"isfamily":0,"originalsecret":"6fc8fe08fe","originalformat":"jpg"},{"id":"22228082104","owner":"137626535@N07","secret":"a374e00da5","server":"679","farm":1,"title":"Frog 04","ispublic":1,"isfriend":0,"isfamily":0,"originalsecret":"129e0efe88","originalformat":"jpg"},{"id":"22662824410","owner":"137626535@N07","secret":"67ac07ae0a","server":"5797","farm":6,"title":"Frog 05","ispublic":1,"isfriend":0,"isfamily":0,"originalsecret":"32982c78cf","originalformat":"jpg"},{"id":"22662792770","owner":"137626535@N07","secret":"a9a91c8674","server":"580","farm":1,"title":"Frog 03","ispublic":1,"isfriend":0,"isfamily":0,"originalsecret":"ddaafdbba4","originalformat":"jpg"},{"id":"22861916261","owner":"137626535@N07","secret":"ce509753da","server":"587","farm":1,"title":"Frog 02","ispublic":1,"isfriend":0,"isfamily":0,"originalsecret":"48bd4256e1","originalformat":"jpg"},{"id":"22836572962","owner":"137626535@N07","secret":"1138d0e282","server":"698","farm":1,"title":"Frog 01 - look at me before i jump away","ispublic":1,"isfriend":0,"isfamily":0,"originalsecret":"11d5e91b44","originalformat":"jpg"},{"id":"22392848847","owner":"75576067@N03","secret":"2b22b4f11c","server":"773","farm":1,"title":"2015-11-05 at 11-52-46","ispublic":1,"isfriend":0,"isfamily":0,"originalsecret":"4edf1ff658","originalformat":"jpg"},{"id":"22797654252","owner":"75576067@N03","secret":"1aabbe25e4","server":"578","farm":1,"title":"2015-11-05 at 11-53-02","ispublic":1,"isfriend":0,"isfamily":0,"originalsecret":"d47f716a08","originalformat":"jpg"},{"id":"22793711152","owner":"91525664@N00","secret":"c206bdc243","server":"5652","farm":6,"title":"Floating Leaf Frog","ispublic":1,"isfriend":0,"isfamily":0},{"id":"22383540127","owner":"54100598@N08","secret":"b5298cba00","server":"612","farm":1,"title":"Squacco Heron (Ardeola ralloides)","ispublic":1,"isfriend":0,"isfamily":0,"originalsecret":"d3b1e2ce22","originalformat":"jpg"},{"id":"22180771663","owner":"54100598@N08","secret":"2fe593e880","server":"714","farm":1,"title":"Squacco Heron (Ardeola ralloides)","ispublic":1,"isfriend":0,"isfamily":0,"originalsecret":"fb44cee27c","originalformat":"jpg"},{"id":"22813109441","owner":"54100598@N08","secret":"8394ea3168","server":"5691","farm":6,"title":"Squacco Heron (Ardeola ralloides)","ispublic":1,"isfriend":0,"isfamily":0,"originalsecret":"63366c3704","originalformat":"jpg"},{"id":"22383334217","owner":"54100598@N08","secret":"8ea303a82d","server":"772","farm":1,"title":"Purple Gallinule (Porphyrio porphyrio)","ispublic":1,"isfriend":0,"isfamily":0,"originalsecret":"3efedaabba","originalformat":"jpg"},{"id":"22383333027","owner":"54100598@N08","secret":"0e00e562d9","server":"5634","farm":6,"title":"Purple Gallinule (Porphyrio porphyrio)","ispublic":1,"isfriend":0,"isfamily":0,"originalsecret":"d9cbdc0dc6","originalformat":"jpg"},{"id":"22409513379","owner":"54100598@N08","secret":"002762b8d5","server":"575","farm":1,"title":"Purple Gallinule (Porphyrio porphyrio)","ispublic":1,"isfriend":0,"isfamily":0,"originalsecret":"597dbab254","originalformat":"jpg"},{"id":"22382727298","owner":"43099353@N00","secret":"1efd9e8056","server":"568","farm":1,"title":"Official ducks at the frog pond!","ispublic":1,"isfriend":0,"isfamily":0,"originalsecret":"2078e26f1b","originalformat":"jpg"},{"id":"22772491466","owner":"92906777@N05","secret":"fb566f3188","server":"720","farm":1,"title":"\u5317\u5b8b\u5b9a\u7aaf\u6613\u5b9a\u6b3e\u767d\u91c9\u523b\u82b1\u63cf\u91d1\u4e94\u5f69\u5b30\u6232\u4f5b\u8a9e\u96d9\u8c61\u9f3b\u8033\u82b1\u53e3\u74f6 A Northern Song Ding Kiln White ground Wucai Porcelain Flower-shaped-mouth Vase with two Elephant-trunk handles and Playing Children by Butterfly and Flowers Design together with Buddhist Words \u201cYi Ding\u201d seal mark","ispublic":1,"isfriend":0,"isfamily":0,"originalsecret":"a28ddf3d87","originalformat":"jpg"},{"id":"22772491456","owner":"92906777@N05","secret":"e936e1ed2c","server":"5765","farm":6,"title":"\u5317\u5b8b\u5b9a\u7aaf\u6613\u5b9a\u6b3e\u767d\u91c9\u523b\u82b1\u63cf\u91d1\u4e94\u5f69\u5b30\u6232\u4f5b\u8a9e\u96d9\u8c61\u9f3b\u8033\u82b1\u53e3\u74f6 A Northern Song Ding Kiln White ground Wucai Porcelain Flower-shaped-mouth Vase with two Elephant-trunk handles and Playing Children by Butterfly and Flowers Design together with Buddhist Words \u201cYi Ding\u201d seal mark","ispublic":1,"isfriend":0,"isfamily":0,"originalsecret":"8f6a28a249","originalformat":"jpg"},{"id":"22772491496","owner":"92906777@N05","secret":"414b93d9e0","server":"5625","farm":6,"title":"\u5317\u5b8b\u5b9a\u7aaf\u6613\u5b9a\u6b3e\u767d\u91c9\u523b\u82b1\u63cf\u91d1\u4e94\u5f69\u5b30\u6232\u4f5b\u8a9e\u96d9\u8c61\u9f3b\u8033\u82b1\u53e3\u74f6 A Northern Song Ding Kiln White ground Wucai Porcelain Flower-shaped-mouth Vase with two Elephant-trunk handles and Playing Children by Butterfly and Flowers Design together with Buddhist Words \u201cYi Ding\u201d seal mark","ispublic":1,"isfriend":0,"isfamily":0,"originalsecret":"0fdff2174e","originalformat":"jpg"},{"id":"22772491526","owner":"92906777@N05","secret":"14c23618b4","server":"5791","farm":6,"title":"\u5317\u5b8b\u5b9a\u7aaf\u6613\u5b9a\u6b3e\u767d\u91c9\u523b\u82b1\u63cf\u91d1\u4e94\u5f69\u5b30\u6232\u4f5b\u8a9e\u96d9\u8c61\u9f3b\u8033\u82b1\u53e3\u74f6 A Northern Song Ding Kiln White ground Wucai Porcelain Flower-shaped-mouth Vase with two Elephant-trunk handles and Playing Children by Butterfly and Flowers Design together with Buddhist Words \u201cYi Ding\u201d seal mark","ispublic":1,"isfriend":0,"isfamily":0,"originalsecret":"26b9834080","originalformat":"jpg"},{"id":"22772491486","owner":"92906777@N05","secret":"e7198e5a72","server":"5799","farm":6,"title":"\u5317\u5b8b\u5b9a\u7aaf\u6613\u5b9a\u6b3e\u767d\u91c9\u523b\u82b1\u63cf\u91d1\u4e94\u5f69\u5b30\u6232\u4f5b\u8a9e\u96d9\u8c61\u9f3b\u8033\u82b1\u53e3\u74f6 A Northern Song Ding Kiln White ground Wucai Porcelain Flower-shaped-mouth Vase with two Elephant-trunk handles and Playing Children by Butterfly and Flowers Design together with Buddhist Words \u201cYi Ding\u201d seal mark","ispublic":1,"isfriend":0,"isfamily":0,"originalsecret":"3f6ea55034","originalformat":"jpg"},{"id":"22772491436","owner":"92906777@N05","secret":"608aac2f65","server":"5664","farm":6,"title":"\u5317\u5b8b\u5b9a\u7aaf\u6613\u5b9a\u6b3e\u767d\u91c9\u523b\u82b1\u63cf\u91d1\u4e94\u5f69\u5b30\u6232\u4f5b\u8a9e\u96d9\u8c61\u9f3b\u8033\u82b1\u53e3\u74f6 A Northern Song Ding Kiln White ground Wucai Porcelain Flower-shaped-mouth Vase with two Elephant-trunk handles and Playing Children by Butterfly and Flowers Design together with Buddhist Words \u201cYi Ding\u201d seal mark","ispublic":1,"isfriend":0,"isfamily":0,"originalsecret":"b9bc82d13d","originalformat":"jpg"},{"id":"22598031110","owner":"47391132@N00","secret":"b4b42698c9","server":"5644","farm":6,"title":"PFO MB 020 24","ispublic":1,"isfriend":0,"isfamily":0},{"id":"22781474925","owner":"132859706@N05","secret":"c93a57aca2","server":"5811","farm":6,"title":"_D802457","ispublic":1,"isfriend":0,"isfamily":0,"originalsecret":"9d864bc10c","originalformat":"jpg"},{"id":"22593024370","owner":"16503905@N06","secret":"4f7d919d8a","server":"614","farm":1,"title":"come up for air.","ispublic":1,"isfriend":0,"isfamily":0,"originalsecret":"0110535a8f","originalformat":"jpg"},{"id":"22159334783","owner":"136479770@N02","secret":"98b97ebb6e","server":"752","farm":1,"title":"Frog in pond","ispublic":1,"isfriend":0,"isfamily":0,"originalsecret":"a82c04d59a","originalformat":"jpg"},{"id":"22768122491","owner":"126780732@N02","secret":"37645797a0","server":"607","farm":1,"title":"Through the Slime","ispublic":1,"isfriend":0,"isfamily":0,"originalsecret":"e8c3f1253f","originalformat":"jpg"},{"id":"22133961653","owner":"76559144@N00","secret":"efb2aa0723","server":"5738","farm":6,"title":"Grenouille agile (Rana dalmatina) nageant dans une tourbi\u00e8re.","ispublic":1,"isfriend":0,"isfamily":0,"originalsecret":"918dc17106","originalformat":"jpg"},{"id":"22741541072","owner":"76559144@N00","secret":"7775220735","server":"5814","farm":6,"title":"Grenouille agile (Rana dalmatina) nageant dans une tourbi\u00e8re.","ispublic":1,"isfriend":0,"isfamily":0,"originalsecret":"ef7c8a8998","originalformat":"jpg"},{"id":"22133958353","owner":"76559144@N00","secret":"88b44e16b8","server":"5825","farm":6,"title":"Grenouille agile (Rana dalmatina) nageant dans une tourbi\u00e8re.","ispublic":1,"isfriend":0,"isfamily":0,"originalsecret":"59ae9acee8","originalformat":"jpg"},{"id":"22728344236","owner":"76559144@N00","secret":"3fb3e9d5d6","server":"5688","farm":6,"title":"Grenouille agile (Rana dalmatina) nageant dans une tourbi\u00e8re.","ispublic":1,"isfriend":0,"isfamily":0,"originalsecret":"1e0fac2a86","originalformat":"jpg"},{"id":"22132278463","owner":"76559144@N00","secret":"db8bcb0dbb","server":"638","farm":1,"title":"Grenouille verte (Rana esculenta) pos\u00e9e sur la feuille d'un n\u00e9nuphar jaune (Nuphar lutea).","ispublic":1,"isfriend":0,"isfamily":0,"originalsecret":"ab06ff3934","originalformat":"jpg"},{"id":"22762865591","owner":"76559144@N00","secret":"29e724d737","server":"5686","farm":6,"title":"T\u00eatards agglutin\u00e9s sur une branche sous 2,50 m\u00e8tres d'eau.","ispublic":1,"isfriend":0,"isfamily":0,"originalsecret":"ae83273fa1","originalformat":"jpg"},{"id":"22751649575","owner":"76559144@N00","secret":"144010bf64","server":"680","farm":1,"title":"T\u00eatards agglutin\u00e9s sur une branche sous 2,50 m\u00e8tres d'eau.","ispublic":1,"isfriend":0,"isfamily":0,"originalsecret":"c9e8d03612","originalformat":"jpg"},{"id":"22718360226","owner":"50480446@N03","secret":"2407220737","server":"571","farm":1,"title":"Weasel (\u9f2c, \u30a4\u30bf\u30c1)","ispublic":1,"isfriend":0,"isfamily":0,"originalsecret":"8f0ca6177e","originalformat":"jpg"},{"id":"22710611816","owner":"125787008@N07","secret":"1e9998c0b8","server":"5751","farm":6,"title":"SomeFrog","ispublic":1,"isfriend":0,"isfamily":0,"originalsecret":"fc4f4fe3c9","originalformat":"jpg"},{"id":"22729340495","owner":"128901960@N03","secret":"3be1258a29","server":"739","farm":1,"title":"Frog Pond","ispublic":1,"isfriend":0,"isfamily":0,"originalsecret":"e0a6c109a9","originalformat":"jpg"},{"id":"22526084250","owner":"126527516@N03","secret":"62214e4417","server":"634","farm":1,"title":"Raindrops on my Skin","ispublic":1,"isfriend":0,"isfamily":0},{"id":"22091268244","owner":"126527516@N03","secret":"2f5b696b68","server":"5836","farm":6,"title":"Poolside","ispublic":1,"isfriend":0,"isfamily":0},{"id":"22723883021","owner":"92906777@N05","secret":"749c927778","server":"5836","farm":6,"title":"\u4e00\u4ef6\u897f\u5143\u524d1600\u5e74\u81f3\u897f\u5143\u524d221\u5e74\u5546\u5468\u6642\u671f\u92b3\u5229\u9752\u9285\u5315\u9996 A sharp Bronze carved Dagger of Shang dynasty to Zhou dynasty China from 1600 B.C. to 221 B.C.","ispublic":1,"isfriend":0,"isfamily":0,"originalsecret":"98022ac323","originalformat":"jpg"},{"id":"22723883061","owner":"92906777@N05","secret":"1cba265f27","server":"5828","farm":6,"title":"\u4e00\u4ef6\u897f\u5143\u524d1600\u5e74\u81f3\u897f\u5143\u524d221\u5e74\u5546\u5468\u6642\u671f\u92b3\u5229\u9752\u9285\u5315\u9996 A sharp Bronze carved Dagger of Shang dynasty to Zhou dynasty China from 1600 B.C. to 221 B.C.","ispublic":1,"isfriend":0,"isfamily":0,"originalsecret":"2b7ae8e145","originalformat":"jpg"},{"id":"22072544354","owner":"63394592@N08","secret":"dc36d1039d","server":"5833","farm":6,"title":"Litoria aurea","ispublic":1,"isfriend":0,"isfamily":0,"originalsecret":"287373c66a","originalformat":"jpg"},{"id":"22665641706","owner":"97499887@N06","secret":"1b0658567e","server":"5804","farm":6,"title":"starr-110307-2018-Eichhornia_crassipes-habitat_in_pond_with_frog_statue-Kula_Botanical_Garden-Maui","ispublic":1,"isfriend":0,"isfamily":0,"originalsecret":"9269724f03","originalformat":"jpg"},{"id":"22068165274","owner":"32038559@N07","secret":"7f9e78ac11","server":"687","farm":1,"title":"frog vs gras","ispublic":1,"isfriend":0,"isfamily":0,"originalsecret":"1791d4ba67","originalformat":"jpg"},{"id":"22659328886","owner":"45483200@N08","secret":"4bc0916b20","server":"682","farm":1,"title":"the frog","ispublic":1,"isfriend":0,"isfamily":0,"originalsecret":"fe380aa150","originalformat":"jpg"},{"id":"22693060641","owner":"134309645@N04","secret":"ce560c7fd0","server":"5705","farm":6,"title":"IMG_5303","ispublic":1,"isfriend":0,"isfamily":0},{"id":"22493328310","owner":"90386669@N08","secret":"26a67fe2ee","server":"5706","farm":6,"title":"Southern Leopard Frog","ispublic":1,"isfriend":0,"isfamily":0,"originalsecret":"3f542746f2","originalformat":"jpg"},{"id":"22058982653","owner":"134309645@N04","secret":"082e56ee02","server":"746","farm":1,"title":"IMG_8478","ispublic":1,"isfriend":0,"isfamily":0},{"id":"22666570992","owner":"134309645@N04","secret":"05ebdebdac","server":"603","farm":1,"title":"IMG_8490","ispublic":1,"isfriend":0,"isfamily":0},{"id":"22654122336","owner":"134309645@N04","secret":"b632b84f26","server":"713","farm":1,"title":"IMG_8512","ispublic":1,"isfriend":0,"isfamily":0},{"id":"22680126125","owner":"134309645@N04","secret":"6c45ab891d","server":"5654","farm":6,"title":"IMG_8528","ispublic":1,"isfriend":0,"isfamily":0},{"id":"22057369394","owner":"134309645@N04","secret":"0185e44b2d","server":"5713","farm":6,"title":"IMG_8514","ispublic":1,"isfriend":0,"isfamily":0},{"id":"22691303141","owner":"134309645@N04","secret":"e95c51909a","server":"636","farm":1,"title":"IMG_8533","ispublic":1,"isfriend":0,"isfamily":0},{"id":"22058980613","owner":"134309645@N04","secret":"5715ff532b","server":"5697","farm":6,"title":"IMG_8544","ispublic":1,"isfriend":0,"isfamily":0},{"id":"22654120826","owner":"134309645@N04","secret":"5b69ffb9ca","server":"690","farm":1,"title":"IMG_8540","ispublic":1,"isfriend":0,"isfamily":0},{"id":"22654119566","owner":"134309645@N04","secret":"983df57d1a","server":"626","farm":1,"title":"IMG_8641","ispublic":1,"isfriend":0,"isfamily":0},{"id":"22053813443","owner":"92906777@N05","secret":"b82c0bfa3c","server":"5754","farm":6,"title":"\u4e00\u4ef6\u897f\u5143\u524d1600\u5e74\u81f3\u897f\u5143\u524d221\u5e74\u5546\u5468\u6642\u671f\u92b3\u5229\u9752\u9285\u77db A sharp Bronze carved Spear \u201cMao\u201d of Shang dynasty to Zhou dynasty China from 1600 B.C. to 221 B.C.","ispublic":1,"isfriend":0,"isfamily":0,"originalsecret":"55c8d5f52f","originalformat":"jpg"},{"id":"22053813493","owner":"92906777@N05","secret":"9f0e094e31","server":"5681","farm":6,"title":"\u4e00\u4ef6\u897f\u5143\u524d1600\u5e74\u81f3\u897f\u5143\u524d221\u5e74\u5546\u5468\u6642\u671f\u92b3\u5229\u9752\u9285\u77db A sharp Bronze carved Spear \u201cMao\u201d of Shang dynasty to Zhou dynasty China from 1600 B.C. to 221 B.C.","ispublic":1,"isfriend":0,"isfamily":0,"originalsecret":"804a74156c","originalformat":"jpg"},{"id":"22633851322","owner":"77014830@N05","secret":"bdfe008b1d","server":"720","farm":1,"title":"Rakkies","ispublic":1,"isfriend":0,"isfamily":0,"originalsecret":"1fbc67747f","originalformat":"jpg"},{"id":"22647185305","owner":"136327928@N04","secret":"57f6c8e020","server":"5647","farm":6,"title":"Froschbaby","ispublic":1,"isfriend":0,"isfamily":0,"originalsecret":"2a0de0baac","originalformat":"jpg"},{"id":"22025854113","owner":"8666250@N02","secret":"305528c768","server":"679","farm":1,"title":"Hooded Merganser - 1","ispublic":1,"isfriend":0,"isfamily":0,"originalsecret":"dcced993d6","originalformat":"jpg"},{"id":"22643809281","owner":"10978503@N00","secret":"650b7b3a02","server":"655","farm":1,"title":"Giant frog in the pond - David Livingstone Centre, Blantyre, Glasgow, Scotland","ispublic":1,"isfriend":0,"isfamily":0,"originalsecret":"6a1e250d19","originalformat":"jpg"},{"id":"22004805023","owner":"69005233@N00","secret":"b8bcd9f453","server":"5686","farm":6,"title":"sunning himself on the lily pad","ispublic":1,"isfriend":0,"isfamily":0},{"id":"22593689246","owner":"33048856@N05","secret":"bcd05fc125","server":"5734","farm":6,"title":"Frog on a Log","ispublic":1,"isfriend":0,"isfamily":0,"originalsecret":"b4c2230d4d","originalformat":"jpg"},{"id":"22609004785","owner":"87814021@N05","secret":"72ce5d8c14","server":"5832","farm":6,"title":"Two's Company, Three's a Crowd","ispublic":1,"isfriend":0,"isfamily":0,"originalsecret":"2868c34258","originalformat":"jpg"},{"id":"22607896565","owner":"132592413@N03","secret":"778fcc8cc1","server":"626","farm":1,"title":"#pond #frog #platter. Isn't it #cute #exclusive #premium #socute #centrepiece #myfav #999 #silver #designer #diwali #wedding #gift #options #madeinindia #innerspace #follow4follow #like4like","ispublic":1,"isfriend":0,"isfamily":0,"originalsecret":"d1360ee31d","originalformat":"jpg"},{"id":"21981043074","owner":"16503905@N06","secret":"1d8aea3bee","server":"5639","farm":6,"title":"Mr.Crow!. 023","ispublic":1,"isfriend":0,"isfamily":0,"originalsecret":"abcfaee497","originalformat":"jpg"},{"id":"21979302184","owner":"53668465@N07","secret":"d5ff4b96df","server":"650","farm":1,"title":"Take a Breather","ispublic":1,"isfriend":0,"isfamily":0,"originalsecret":"696ba45168","originalformat":"jpg"},{"id":"22598457071","owner":"95798163@N00","secret":"8bd2c9b307","server":"625","farm":1,"title":"#Xmas #lights #frogpond #icerink #boston #tadpole","ispublic":1,"isfriend":0,"isfamily":0,"originalsecret":"65e77e5e6d","originalformat":"jpg"},{"id":"21961059524","owner":"43970223@N08","secret":"22cdb90c5d","server":"5777","farm":6,"title":"Meet the frogs @Guesthouse Muxima, Aljezur, Algarve","ispublic":1,"isfriend":0,"isfamily":0},{"id":"22594635131","owner":"43970223@N08","secret":"265d8f154b","server":"5815","farm":6,"title":"Meet the frogs @ Guesthouse Muxima, Aljezur","ispublic":1,"isfriend":0,"isfamily":0},{"id":"22395469910","owner":"43970223@N08","secret":"89e07db9bd","server":"5761","farm":6,"title":"Meet the frogs @ Guesthouse Muxima, Aljezur","ispublic":1,"isfriend":0,"isfamily":0},{"id":"21960680054","owner":"43970223@N08","secret":"181df4f4fa","server":"614","farm":1,"title":"Meet the frogs @ Guesthouse Muxima, Aljezur","ispublic":1,"isfriend":0,"isfamily":0},{"id":"21959554694","owner":"23228379@N06","secret":"602d780db4","server":"761","farm":1,"title":"3 frogs in the fountain","ispublic":1,"isfriend":0,"isfamily":0,"originalsecret":"000da0c2b2","originalformat":"jpg"},{"id":"21944667493","owner":"30585665@N07","secret":"7c9a3539c8","server":"5710","farm":6,"title":"PATCH5046-Quilt-Woodland-baby-26-10-2015","ispublic":1,"isfriend":0,"isfamily":0,"originalsecret":"5d487d47ca","originalformat":"jpg"},{"id":"22554076285","owner":"43970223@N08","secret":"383d951c62","server":"597","farm":1,"title":"Guesthouse Muxima, Aljezur (Algarve)","ispublic":1,"isfriend":0,"isfamily":0},{"id":"22366115140","owner":"43970223@N08","secret":"ea15ced029","server":"5646","farm":6,"title":"Meet the frogs@ Guesthouse Muxima, Aljezur (Algarve)","ispublic":1,"isfriend":0,"isfamily":0},{"id":"22522895526","owner":"88808346@N04","secret":"7f17672df3","server":"699","farm":1,"title":"MagicPond_Fabric_1500px","ispublic":1,"isfriend":0,"isfamily":0,"originalsecret":"a870c8638c","originalformat":"png"},{"id":"22359119340","owner":"49909563@N05","secret":"53eb8921ae","server":"648","farm":1,"title":"Kari","ispublic":1,"isfriend":0,"isfamily":0,"originalsecret":"115a624da0","originalformat":"jpg"},{"id":"22529478762","owner":"99041598@N00","secret":"f52f3f57d9","server":"592","farm":1,"title":"Froggy portrait","ispublic":1,"isfriend":0,"isfamily":0,"originalsecret":"9256bd1208","originalformat":"jpg"},{"id":"21912313573","owner":"33970514@N02","secret":"f3758d1cb2","server":"5770","farm":6,"title":"Frog Pond","ispublic":1,"isfriend":0,"isfamily":0},{"id":"21912091103","owner":"27956354@N06","secret":"3bf06b06d8","server":"5755","farm":6,"title":"Burn2 Wanderings - Frog Pond","ispublic":1,"isfriend":0,"isfamily":0,"originalsecret":"2de07935f6","originalformat":"png"},{"id":"22506733796","owner":"27956354@N06","secret":"b9e30ec2e5","server":"662","farm":1,"title":"Burn2 - Mias Camp","ispublic":1,"isfriend":0,"isfamily":0,"originalsecret":"83f0841a51","originalformat":"png"},{"id":"21910951453","owner":"11758189@N07","secret":"3f00288699","server":"5719","farm":6,"title":"Tracer is holding Apo","ispublic":1,"isfriend":0,"isfamily":0,"originalsecret":"02a7fa62ec","originalformat":"png"},{"id":"22339820500","owner":"43970223@N08","secret":"974bf6b866","server":"5637","farm":6,"title":"Meet the frogs @Guesthouse Muxima, Aljezur (Algarve)","ispublic":1,"isfriend":0,"isfamily":0},{"id":"21906565963","owner":"43970223@N08","secret":"e9a3e80dcd","server":"5720","farm":6,"title":"Meet the frogs @Guesthouse Muxima, Aljezur (Algarve)","ispublic":1,"isfriend":0,"isfamily":0},{"id":"22527757265","owner":"43970223@N08","secret":"fd980b3c5a","server":"757","farm":1,"title":"Meet the frogs @Guesthouse Muxima, Aljezur (Algarve)","ispublic":1,"isfriend":0,"isfamily":0},{"id":"22538905561","owner":"43970223@N08","secret":"756ec3028c","server":"5779","farm":6,"title":"Meet the frogs @Guesthouse Muxima, Aljezur (Algarve)","ispublic":1,"isfriend":0,"isfamily":0},{"id":"22501787216","owner":"43970223@N08","secret":"b712b143fd","server":"601","farm":1,"title":"Meet the frogs @Guesthouse Muxima, Aljezur (Algarve)","ispublic":1,"isfriend":0,"isfamily":0},{"id":"22340058068","owner":"43970223@N08","secret":"48e9a44453","server":"5622","farm":6,"title":"Meet the frogs @Guesthouse Muxima, Aljezur (Algarve)","ispublic":1,"isfriend":0,"isfamily":0},{"id":"22514776155","owner":"46318930@N06","secret":"63bd1e481b","server":"5709","farm":6,"title":"frog in pond","ispublic":1,"isfriend":0,"isfamily":0,"originalsecret":"e3d28be9a6","originalformat":"jpg"},{"id":"22501339522","owner":"46318930@N06","secret":"8ed4c11a15","server":"5791","farm":6,"title":"frog in pond 2015","ispublic":1,"isfriend":0,"isfamily":0,"originalsecret":"844af20391","originalformat":"jpg"},{"id":"22324765218","owner":"92906777@N05","secret":"5e3cb801bf","server":"667","farm":1,"title":"\u6771\u5468\u81f3\u6f22\u671d\u9752\u9285\u932f\u91d1\u9060\u53e4\u4eba\u985e\u99ac\u72ac\u72e9\u7375\u5716\u7d0b\u72e9\u7375\u72ac A Bronze Hunting Dog gilt with ancient Men Horses and Dogs on hunting painting of Eastern Zhou dynasty to Han dynasty China","ispublic":1,"isfriend":0,"isfamily":0,"originalsecret":"a755394ff6","originalformat":"jpg"}]},"stat":"ok"}